{
	"Version": "2.0",
	"Projection": "Equirectangular",
    "Original_file_path": "xxx/ori.yuv",
	"Reconstructed_file_path":"xxx/rec.yuv",
	"ColorSpace": "YUV420",
	"Video_width": 4096,
    "Video_height": 2048,
	"BitDepth": 10,
	"NumberOfFrames": 32,
    "Peak_value_of_10bits": 1020,
	"Start_frame_of_original_file": 0,
	"Start_frame_of_reconstructed_file": 0,
	"Longitude_range_of_ERP": 360,
	"Latitude_range_of_ERP": 180,
	"Valid_rectangular_region_from_left_boundary_In_luma": 0,
	"Valid_rectangular_region_from_right_boundary_In_luma": 0,
	"Valid_rectangular_region_from_top_boundary_In_luma": 0,
	"Valid_rectangular_region_from_bottom_boundary_In_luma": 0	
}